{
  "communities": "Населенные пункты",
  "systems": "Система Водоснабжения",
  "service_providers": "Поставщик услуг",
  "technical_providers": "ПУТП",
  "name": "Наименование",
  "adm": "ADM | Административные единицы",
  "adm_0": "Страна",
  "adm_1": "Область",
  "adm_2": "Район",
  "adm_3": "Город",
  "location": "Местанахождение",
  "population": "Население",
  "total_population": "Общая численность населения",
  "households": "Домохозяйства",
  "total_households": "Всего домохозяйств",
  "building_date": "Год постройки",
  "supply_type": "Тип поставки",
  "billing": "Биллинг",
  "women": "Женский пол",
  "provider_type": "Тип провайдера",
  "variable_average": "Среднее {{variable}}",
  "legal_status": "Юридический статус",
  "yes": "Да",
  "no": "Нет",
  "has_system": "Имеет систему?",
  "served_households": "Обслуживаемые Домохозяйства",
  "served_communities": "Обслуживаемые Населенные пункты ",
  "search": {
    "title": "Поиск",
    "placeholder": "Ввод текста для поиска"
  },
  "filter": {
    "title": "Местанахождение"
  },
  "wsl_acc":  "Улучшенный охват водоснабжения",
  "shl_ssl": "Улучшенный охват санитарии",
  "countries": {
    "bo" :"Боливия",
    "br": "Бразилия",
    "co": "Колумбия",
    "cr": "Коста Рика",
    "do": "Доминиканская Республика",
    "hn": "Гондурас",
    "mx": "Мексика",
    "ni": "Никарагуа",
    "pa": "Панама",
    "py": "Парагвай",
    "pe": "Перу",
    "kg": "Кыргызстан"
  },
  "more_information": "Больше информации...",
  "interpolation": "Интерполирование"
}